{
  "name": "",
  "css_prefix_text": "icon-",
  "css_use_suffix": false,
  "hinting": true,
  "units_per_em": 1000,
  "ascent": 850,
  "glyphs": [
    {
      "uid": "e898e67b9e1fa6562f997fcd0714660e",
      "css": "antiage",
      "code": 59392,
      "src": "custom_icons",
      "selected": true,
      "svg": {
        "path": "M370 48C268 74.8 203.6 141.2 169.6 254.8 154 306 151.6 392.4 164 452 177.2 517.2 207.2 591.6 242 646 250 658 258 668 260 668 262 668 262.8 641.2 261.2 600.8 258.4 523.2 264.8 470.4 284.8 408 337.6 242.8 452 151.2 652.4 114.4 681.2 109.2 705.6 104 706.8 102.8 707.6 101.6 704.8 98.4 700 96 686.4 88.8 568.8 53.2 535.2 46.4 491.6 37.2 406.8 38 370 48ZM626 175.2C568.8 203.2 509.2 232.8 494 241.6 430.4 276.8 372.8 329.6 341.2 383.2 299.2 453.6 278.4 557.2 288 649.2 302 787.6 358.4 885.6 450 930 490 949.6 522 956 578 956 632.4 956 667.2 949.2 696.8 933.2 719.2 920.8 752 891.6 745.6 889.2 743.2 888.4 730.8 892.4 718.4 898 651.6 927.6 578.8 927.2 522.4 896.8 490.8 880 455.6 842.8 438.8 808 414.8 758.8 406.8 722.8 406.8 660 406.4 599.6 411.6 573.2 434 525.2 454.4 480.8 468.4 463.2 542 388 620.4 308 644 280.4 677.2 230 702.8 191.2 733.2 133.6 731.2 127.6 730.4 126 683.2 147.2 626 175.2ZM748.8 142.8C746.8 149.2 738.4 172.8 730 196 712.4 245.6 676.4 318 648.4 360 637.2 376.4 612 409.6 592 434 537.6 499.6 518 536.4 505.6 598 498 634.8 493.2 748 499.2 748 501.6 748 510 737.2 518 724 544.8 679.6 581.6 658.4 630 658.4 643.2 658.8 675.6 660 702.4 662 754.8 665.2 773.2 662.4 786.4 647.6 794 639.2 794.4 633.6 797.2 527.2 797.6 508 800 490.8 802 489.2 804.4 487.2 814.4 478.8 825.2 470.4 852.8 448.4 851.6 438.8 815.6 393.6 774.8 343.2 769.2 325.2 792 318 802 314.8 798.8 308 787.6 308 781.6 308 780 306 781.6 300.8 798.8 243.6 794.4 184.4 770.4 147.6 758 129.2 754.4 128.4 748.8 142.8ZM206.4 660.8C214.4 706 244.4 767.2 274 799.2 285.2 811.2 296.4 820.4 298.8 819.6 304.4 817.6 289.2 772.4 270 733.2 255.6 704.4 214.8 648 208 648 206 648 205.2 654 206.4 660.8Z",
        "width": 1000
      },
      "search": [
        "antiage"
      ]
    },
    {
      "uid": "c8a1a2f58cbd2c48266225cfad1019d1",
      "css": "femenina",
      "code": 59393,
      "src": "custom_icons",
      "selected": true,
      "svg": {
        "path": "M468.8 44.4C436 60.8 418 99.6 427.6 132.8 448.8 204.4 541.6 212.8 572.4 146 602.8 80.4 533.2 12.8 468.8 44.4ZM399.2 216C380.4 221.6 363.2 236.8 355.6 254.4 344.8 278.4 320 377.2 320 396 320 414.4 334 430.4 366.8 448.8 378.4 455.2 388 462.8 388 465.6 388 468 372.8 516 354 572 335.2 628 320 674.4 320 674.8 320 675.6 343.6 676 372 676L424 676 424 810 424 944.4 434 954C447.2 967.6 468.8 967.6 482 954 487.6 948.8 492 942.4 492 940 492 932.4 500.4 936 504 945.6 511.2 964.8 539.2 970 557.6 955.6L568 947.6 568 811.6 568 676 624.4 676 680.4 676 677.6 666.8C663.6 623.2 612.8 458 613.2 458 621.6 455.2 661.6 425.2 666.4 418 676 403.2 672 365.6 654.4 304.8 637.6 247.6 633.2 239.2 608.4 224.8L590 214 500 213.2C450.4 212.8 405.2 214 399.2 216Z",
        "width": 1000
      },
      "search": [
        "femenina"
      ]
    },
    {
      "uid": "f28a0aace1e248cfb92e6b29668308ee",
      "css": "estres",
      "code": 59394,
      "src": "custom_icons",
      "selected": true,
      "svg": {
        "path": "M466.4 84.4C447.2 110.8 430.4 135.2 429.6 138 428 141.6 437.6 146.4 460.8 154 479.2 160 495.2 165.6 496.4 166.4 498.8 167.6 497.6 176.4 486.4 235.6 481.6 260 481.6 264 486 259.6 494 251.2 572 143.2 572 140.4 572 138.8 556.8 133.6 537.6 128 518.8 122.8 502.8 117.6 502 116.4 501.6 115.2 503.2 98.8 506.4 80 509.2 61.2 512 43.6 512 40.8 512 27.2 498 40.4 466.4 84.4ZM629.6 152.4C605.6 185.6 586.4 213.6 587.2 215.2 587.6 216.8 602.8 222.8 620.8 228.8 638.4 234.8 654 240.8 655.2 241.6 656 242.8 653.2 264.8 648.4 290.4 643.6 316 640 337.6 640.8 338 642 339.2 728.8 222 731.2 216.4 731.6 214.8 716 208.4 696 202 676.4 195.6 660 188.4 660 186 660 183.6 663.6 161.6 668 138 672 114 675.2 94 674.4 93.2 674 92.8 654 119.2 629.6 152.4ZM306.4 160.4C285.2 189.2 268 214.4 268 215.6 268 217.2 284.4 223.6 304.4 229.6 334 238.4 340 241.6 338.4 247.2 333.6 263.6 326.8 320.4 329.6 322.8 330.8 324.4 334.8 322.8 338 319.6 348 309.6 412 220 412 216 412 214 396.4 207.6 377.6 201.2L343.2 190 345.6 172C352 126 353.2 108 348.8 108 346.4 108 327.2 131.6 306.4 160.4ZM462 341.2C418 356 383.6 386.4 364.8 427.2 335.6 491.2 366 572 432.8 608.4 456.8 621.2 460 622 498 622 533.6 622 540.4 620.8 560.8 610.8 590.4 596.4 616.4 570.4 630.8 540.8 640.8 520.8 642 513.6 642 480 642 446.4 640.8 439.2 630.8 419.2 616.4 389.6 583.2 359.2 552.8 348 524.4 337.2 483.2 334.4 462 341.2ZM248 364.8C230.8 376.4 112.4 532.8 96 565.6 75.6 605.6 80.4 636.4 111.6 669.2 125.6 684.4 200 730.4 278 772.8 336.4 804.4 336 804 336 892.4L336 964 498 964 660 964 660.8 940.8C661.2 928.4 660.8 898.8 660.4 875.6 658.4 808.8 665.6 799.6 750 756.8 809.6 726.4 878.4 682 893.6 663.6 916 636.8 922 606 910 577.2 896.8 546 769.6 376.4 750.4 364.4 734.4 354.4 720 354 701.2 362.4 673.6 376 658.4 408.8 667.6 436.4 670 444 695.2 481.6 724 520L775.6 590 760.8 602.8C752.8 610 730.8 624 712 633.6 638 672 571.6 686 480 682.8 416.4 680.4 378 672.8 324 651.6 293.6 640 239.2 607.2 228.4 594.4 224.8 590 233.6 576 272.4 523.6 339.2 433.2 343.6 423.2 329.6 394 314.4 361.6 274 347.2 248 364.8Z",
        "width": 1000
      },
      "search": [
        "estres"
      ]
    },
    {
      "uid": "d10a8024601c02f7f3bffd5579dd0d26",
      "css": "homepatia",
      "code": 59395,
      "src": "custom_icons",
      "selected": true,
      "svg": {
        "path": "M677.2 168.8C614.8 173.6 562 195.6 524 232.4 462.4 292 427.2 415.2 444.4 510.4 449.6 540.8 460.4 576 464.4 576 466.4 576 478 558.4 490.4 536.8 562 414.8 616 358 683.2 334.4 698.8 328.8 696.8 331.2 650.8 377.2 540.8 486.4 478 592.4 444 726 436 757.6 432 767.6 430 762 393.2 662 343.6 587.6 271.2 524 252.4 507.6 237.6 493.2 238.4 492.4 239.2 491.6 253.2 497.2 269.2 505.2 302 521.2 331.2 549.6 377.6 609.6 396.8 634.4 406 643.6 408 640 410 636.8 412.4 616.4 414 594.4 420 503.6 383.2 423.6 320.8 393.2 300 383.2 293.2 382 247.2 380.8 202.4 379.2 12.4 390 8.8 394 6.8 396 36.4 508 50.8 553.6 82.4 654.4 129.6 726.4 179.6 750.8 199.6 760.8 206.4 762 242 762 267.2 762 294 759.2 315.2 754.4 371.2 741.2 386.8 750.4 399.2 804L406 834 442 834 478 834 484.8 792.8C493.6 741.2 500 726.4 516.8 716 533.6 706 549.6 706 614.4 716 642.8 720.4 676 724 688.4 724 717.6 724 768.4 710.8 791.6 697.2 865.6 654 939.6 516.8 969.6 368 983.2 301.2 996.8 187.2 992 182.4 989.6 180.4 804.8 168.8 750 167.2 730.4 166.4 697.6 167.2 677.2 168.8Z",
        "width": 1000
      },
      "search": [
        "homepatia"
      ]
    },
    {
      "uid": "6235f20256e75ebdb0ded7da579d75cf",
      "css": "megadosis",
      "code": 59396,
      "src": "custom_icons",
      "selected": true,
      "svg": {
        "path": "M130 21.6C106 32.8 95.2 44 84.4 68 76.4 85.2 76 93.6 76 268.4 76 470.4 76.4 473.2 101.2 499.6 123.6 522.8 139.6 528 195.2 528 224.8 528 244 529.6 244 532 244 534 241.6 536 238.4 536 235.2 536 228.8 539.2 224 543.2 216.4 549.6 215.6 552 219.6 559.2 222.4 564.4 228 568 233.6 568 241.6 568 243.2 570.4 245.2 584.4 246.4 593.6 249.6 602.8 252.8 604.8 255.6 606.8 274 607.6 293.2 607.2 332 606 336 603.6 336 580.8 336 570 337.6 568 346 568 352 568 357.6 564.8 360.4 559.2 364.4 552 363.6 549.6 356 543.2 351.2 539.2 344.4 536 341.2 536 338 536 336.8 534 338 532 339.6 529.6 360 528 386.4 528 438 528 453.6 523.6 475.6 502.8 504.4 475.6 504 479.2 504 274 504 166.8 502.4 84 500 76 494.4 55.2 473.2 32.4 450.4 21.6 430 12 428.8 12 290 12 151.2 12 150 12 130 21.6ZM429.2 122C441.2 126.8 444 138 444 177.6 444 236.4 456.4 232 290 232 122.8 232 136 236.8 136 174.8 136 128 139.2 122 164 118.8 186 116 421.2 119.2 429.2 122ZM668.8 40C635.6 44.8 614.4 62.4 596.4 100 586.4 121.2 586 125.2 584 214L582 305.6 572 308 562 310.4 560.8 399.2 560 488.4 572 492.4 584 496.8 584 679.2C584 789.2 582 869.2 579.6 880 574.4 903.6 559.2 926 543.2 934.4 532.4 940 517.2 940.8 442.4 940.4 338.8 939.6 335.6 938.4 317.2 900.8L306 878 304 754 302 630 290 630 278 630 278 760C278 888 278 890.4 287.6 910.8 299.2 936.8 326 962 348 968 358.8 970.8 396 972 453.6 971.2 552 970 554 969.2 581.2 941.2 589.6 932.8 600 916 604.8 904 613.6 882.8 614 876 616 688 618 498 618 494 626 492.4 637.2 490.4 640 484.8 640 462.8 640 446.4 642 441.6 652 432 661.2 423.6 664 417.2 664 406 664 395.2 660.8 388.4 652 379.2 641.6 368.8 640 364.8 640 344 640 314.4 637.6 308 625.2 308L615.6 308 616.8 214.8C618 128 618.4 120.8 626.8 105.2 632 96 641.6 84.4 648.8 79.2 661.2 70.4 665.6 70 739.6 68.8 825.6 67.2 832.8 68.8 852 90.4 876 118 876 118.4 876 419.2L876 693.2 866 702.4C856.4 711.2 856 713.6 856 757.2 856 815.2 857.2 816.8 894 815.2L922 814 923.2 766C924.4 710.4 923.2 701.6 912 698.8 904.4 696.8 904 692.4 903.2 407.6L902 118 892.4 97.2C880.4 70 858 50 831.6 42.4 808.8 35.6 709.2 34 668.8 40Z",
        "width": 1000
      },
      "search": [
        "megadosis"
      ]
    },
    {
      "uid": "b38d3ad25b39c15466d54e608a758ef0",
      "css": "bajar_peso",
      "code": 59397,
      "src": "custom_icons",
      "selected": true,
      "svg": {
        "path": "M260 94.4C260 96 265.6 114.4 272.4 135.6 283.2 168.8 284.4 178.4 283.2 206 281.6 232.8 278.4 244.8 262.8 282 252.4 306 231.2 350.4 216 380 161.6 484.8 147.6 515.6 137.2 554.8 128 588.8 126.8 602 126.4 654 126.4 712.4 127.2 716.8 147.6 808 159.2 859.6 170.8 904.4 172.8 907.2 177.2 912 212 914.4 212 909.6 212 908 206.8 890 200 869.6 186.8 828.4 170.8 747.2 164.4 688.8 159.6 644.4 164.4 595.2 177.2 556 185.6 531.2 186.4 530 198 530.8 222.8 532.8 388.8 612.8 438 646.8L466 666 468 788 470 910 497.2 911.2 524 912.4 524 809.2C524 750.8 526 699.6 528 691.2 536 663.2 608.4 606.8 684 570 720.8 552.4 810.4 521.2 814.4 524.8 815.2 526 820.8 544.8 826.4 566.4 846 641.2 838.8 727.2 801.6 866 796.4 885.6 792 904.4 792 906.8 792 910 798 912 808.4 912 823.6 912 824.8 910.8 832 894.8 854.4 844 873.2 737.6 873.6 658 873.6 565.2 858.8 515.2 797.6 405.2 712.8 252.4 702 208 729.6 128 735.2 112 740 97.2 740 95.2 740 93.6 731.2 92 720.4 92L700.8 92 690.4 134C669.6 216.8 678.4 264 732.4 367.2 748 396.8 760 421.2 759.2 422 758.4 422.4 740.8 428.8 719.6 435.2 604 472.4 480 479.6 360.4 456.4 320 448.4 240 425.6 240 422 240 420.8 252 397.6 266.4 370 306 294.8 327.2 225.2 322.4 188 320.8 177.6 314.8 152 308.8 131.6L297.6 94 278.8 92.8C268.4 92 260 92.8 260 94.4ZM124 142L124 184 72 184 20 184 20 228 20 272 72 272 124 272 124 306.4C124 325.2 125.6 340 127.2 339.2 133.2 337.2 232.4 222.8 231.2 219.6 229.6 215.6 127.6 100 125.6 100 124.8 100 124 118.8 124 142ZM820.8 159.2L767.2 220 774.8 229.6C790 249.6 870 339.6 873.2 339.6 874.8 340 876 321.2 876 298L876 256 928 256 980 256 980 214 980 172 928 172 876.4 172 875.2 135.6 874 98.8 820.8 159.2Z",
        "width": 1000
      },
      "search": [
        "bajar_peso"
      ]
    },
    {
      "uid": "da8a75b7f2fc5117027a1ecfc3a79874",
      "css": "cardiovascular",
      "code": 59398,
      "src": "custom_icons",
      "selected": true,
      "svg": {
        "path": "M452 51.6C355.2 82.4 306.8 193.2 349.6 286 375.2 342.4 419.2 373.6 487.6 384.4 558 395.2 624.8 358 658.8 288.8 673.6 259.2 674 257.2 674 214.4 674 172.8 673.2 168.4 661.6 143.6 639.6 97.2 604.8 66.8 556.8 52 524.8 42 482 42 452 51.6ZM372 424C314.4 431.6 276.8 450 236 491.6 212 515.6 201.6 530 186.8 560 153.2 628 151.2 644 149.2 812.8L147.2 960 201.6 960 256 960 256 804 256 648 278 648 300 648 300.8 802.8 302 958 505.2 959.2 708 960 708 804 708 648 732 648 756 648 756 804 756 960 806.4 960 856.8 960 854.8 802.8C853.6 700.4 851.2 639.2 848 626 845.2 614.8 835.6 589.6 826.4 570 788.4 490.4 739.2 446.4 669.2 429.6 647.6 424.4 616.4 422.8 518 422 450 421.6 384 422.4 372 424ZM576.4 599.6C585.2 606.8 586 606.8 597.6 599.6 614.4 589.2 629.2 590 643.2 602 674 628 662 660 604.8 704L587.6 716.8 574.4 707.6C533.2 678 516 656.4 516 634.4 516.4 600.8 552.4 580 576.4 599.6Z",
        "width": 1000
      },
      "search": [
        "cardiovascular"
      ]
    },
    {
      "uid": "d54efe6dc06036e4e52249b75e41d534",
      "css": "digestiva",
      "code": 59399,
      "src": "custom_icons",
      "selected": true,
      "svg": {
        "path": "M449.6 55.2C369.2 84 322 161.2 334.8 244 348.8 333.6 424.8 392.4 520.4 387.6 633.2 381.6 708 246.8 656.4 142 640 108.8 612.4 82 576.8 64.8 550.4 52.4 542.8 50.4 508.8 49.2 478.4 48 465.6 49.2 449.6 55.2ZM348 430.4C313.6 437.6 269.6 459.6 244.4 482.4 217.2 506.8 188.8 550.4 173.2 592.4 152 649.2 148 685.2 148 830.8L148 960 202 960 256 960 256 806 256 652 278 652 300 652 300 806 300 960 502 960 704 960 704 804 704 648 728 648 752 648 752 804 752 960 802.4 960 852.8 960 850.8 802.8C849.6 671.6 848 642 842.4 622 822 549.2 769.2 476.8 717.2 450.8 676.8 430 655.6 426.4 578 426L506 426 507.2 460C510.8 564 530 644 561.2 685.6 566.8 692.8 567.6 693.2 583.6 686.8 619.6 672.4 645.6 681.6 660.4 713.6 680.4 757.6 660 821.2 617.2 848 589.6 865.6 558.8 864.8 514.8 846 497.2 838.4 481.6 832 480.8 832 479.6 832 480 845.6 481.2 862 482.8 878.4 482.4 892 480.8 892 472.4 892 460 878.4 456.4 865.2 453.2 854.4 453.6 847.6 458 837.2 464 823.6 471.6 818.8 516.4 802.4 526.4 798.8 540 790.4 546.4 783.6 556 773.6 558 768 558 752.8 558 733.2 554.8 726 530.4 686 522.4 672.8 513.2 652.8 509.6 642 504.8 626 476 442 476 428 476 422 378 423.6 348 430.4Z",
        "width": 1000
      },
      "search": [
        "digestiva"
      ]
    },
    {
      "uid": "2a2bbd7d0a542f273e0eac280a21b4b3",
      "css": "integral",
      "code": 59400,
      "src": "custom_icons",
      "selected": true,
      "svg": {
        "path": "M289.6 124.4C248 136.4 217.6 176 213.2 222.8 208.4 276 229.2 338.8 260.8 366 303.2 402 371.2 400 409.6 362 430.4 340.8 442.4 312.8 448.4 269.2 458.4 196 432.4 142 379.6 126.4 356.8 119.6 309.6 118.4 289.6 124.4ZM738.8 280C716.4 285.6 702.8 294 688.8 310 673.6 326.8 668.4 344.8 652.4 436 640.8 501.6 640.4 506.4 646.8 511.2 670 528.4 764.4 536.8 836 528 869.2 524 906.4 514 909.6 508.8 910.4 507.2 908 488.8 903.6 468 899.2 447.2 892.4 410 888 385.2 884 360.8 876.8 333.6 872.4 324.8 863.6 307.2 845.2 291.2 826.4 284 810 278 757.2 275.6 738.8 280ZM474 406C453.6 413.2 430 438.4 424.4 458.4 413.6 497.2 423.2 555.6 445.2 582 479.6 624 550.4 621.6 580.8 577.6 612 533.2 610.8 455.6 578.8 424.8 555.2 402 508.8 393.6 474 406ZM165.2 426C94 445.2 54.4 488.8 42.4 562.4 34 612.8 20 793.6 20 854.8 20 864 20.4 864 76 864 130.8 864 132 864 133.6 854.8 134.8 850 137.6 804 140.4 752.8 143.2 702 146.8 660 148.4 660 150.4 660 152 706 152 762L152 864 161.6 866.4C166.8 867.6 196.4 868 227.2 867.2 306.8 865.6 304.8 868 322.4 750 336.8 654.4 347.2 634 390 618 400 614 408 608.8 408 606.4 408 604 403.6 563.2 398 516 392.4 468.8 388 427.6 388 424.8 388 417.6 193.6 418.4 165.2 426ZM653.2 549.2C644.8 550.8 634 556.4 628.8 561.2 610 578.4 600.8 616 615.2 616 618.8 616 631.2 620.4 642.8 625.6 677.6 642 689.2 668 700 755.6 707.2 812 717.2 844 731.6 856.8L744 868 820 868 896 868 896 795.2C896 755.2 896.8 723.6 898 724.4 898.8 725.6 902.4 751.6 906 782.4 909.2 812.8 912.8 844.8 914.4 853.2L916.8 868.4 949.2 867.2 982 866 982 754C982 657.6 981.2 639.2 974.8 622 965.2 594 948 574.4 920.8 561.2 899.2 550.4 895.2 550 834 548.8 798.8 548.4 747.2 547.6 719.2 546.8 691.2 546.4 661.6 547.6 653.2 549.2ZM492 626.4C484.4 627.2 461.6 631.6 441.6 636 407.2 644 404.4 645.2 385.2 665.2 362 688.8 361.6 690 344 794.4 332.8 860.4 332.8 862 340 869.6 347.6 877.2 348 877.2 378.4 858.4L409.2 839.2 421.6 853.2 434 867.6 502 870C573.2 872.8 590 870.4 608.4 853.6 614.4 848.4 618 848.8 645.6 860 662.4 866.4 678.4 872 680.8 872 684 872 684.4 859.2 682.4 827.6 674 696.8 626.8 633.2 533.6 626.8 518.4 625.6 499.6 625.6 492 626.4Z",
        "width": 1000
      },
      "search": [
        "integral"
      ]
    },
    {
      "uid": "c635061f34e68fa6092270328a75f2b6",
      "css": "osteoarticular",
      "code": 59401,
      "src": "custom_icons",
      "selected": true,
      "svg": {
        "path": "M439.6 46.4C436 50.8 433.2 70.4 431.6 103.6 428.8 162.4 420.4 198.8 401.2 238.8 387.2 267.2 348.4 318.4 337.6 322.8 328 326.4 309.2 356.8 302.4 380 294.8 405.6 294 450.4 300.8 473.6 308 497.2 334.4 522 360.4 529.6 398 540.8 416.4 536 458.8 504.8 497.2 476.4 501.6 476 542 495.6 584 516 600.4 518.8 629.6 510.4 659.6 501.6 689.2 474 696 448 702.4 423.6 698.8 384.4 688 362 683.2 352 667.6 331.2 653.6 316 600.4 258 596.8 248 591.6 136.4 589.2 87.6 585.6 48 583.2 45.2 580 41.2 561.6 40 512 40 455.2 40 444 40.8 439.6 46.4ZM460.4 534C424.8 560.8 408.4 565.6 367.6 562 339.2 559.6 336.4 560 332.4 567.2 319.6 590.8 334.4 628 373.2 671.2 388.8 688.4 401.6 707.2 405.2 717.6 408.8 727.6 415.2 783.2 420.4 847.6L429.6 960 500.4 960 571.2 960 574 918.8C582.8 782.8 595.2 704 608 704 610.8 704 612 747.2 612 832L612 960 631.6 960C650.8 960 650.8 960 653.2 945.2 654.4 936.8 657.6 904.8 659.6 874 662 843.2 665.6 794.4 668 766 670 734.4 675.2 702.8 680 686.4 687.2 664.4 688 655.6 684.8 643.6 680.4 626.8 682.8 611.2 693.6 586.4 700.8 568.8 702 543.2 696 531.6 690.4 521.6 677.6 522 651.2 532.8 636.8 538.4 620.8 541.2 601.6 541.6 576.4 542 570.4 540.4 544.8 526.8 505.6 506.4 496.8 507.2 460.4 534Z",
        "width": 1000
      },
      "search": [
        "osteoarticular"
      ]
    },
    {
      "uid": "da2dc570b0fa1a490bf9db61eb95e3a4",
      "css": "respitatoria",
      "code": 59402,
      "src": "custom_icons",
      "selected": true,
      "svg": {
        "path": "M449.2 56.4C389.2 75.2 341.2 135.2 333.6 201.2 328.4 246.4 348.8 304 381.2 336.8 430 385.2 514 402 573.6 374.8 605.2 360.4 640.8 324 657.2 289.2 669.2 263.6 670 259.2 670 218 669.6 162.8 661.2 138.4 630 104.8 583.6 54.8 513.6 36 449.2 56.4ZM350.8 430C242.8 452 170.4 543.6 152 682.8 149.6 702.4 148 765.6 148.8 837.6L150 960 203.2 960 256 960 256 804 256 648 278 648 300 648 300.8 802.8 302 958 503.2 959.2 704 960 704 804 704 648 728 648 752 648 752 804 752 960 799.6 960 846.8 960 849.6 929.2C853.2 883.6 852.4 711.6 848 666.8 836.8 553.6 767.2 461.2 671.6 433.2 641.2 424.4 391.2 422 350.8 430ZM515.2 554.8C516 637.2 520 662.4 525.6 618.8 526.8 607.6 528 588.8 528 577.6 528 566.8 530.4 554 533.6 550 538.8 542.4 539.6 542.8 556.4 554 599.6 582.4 640.4 636.4 650.4 678 654 693.2 658 708.8 659.2 712 662 721.6 660 768.8 655.6 784.8 653.6 792.8 646.8 803.6 640.8 808.4 631.6 815.6 626.8 816.4 605.2 814.4 572.4 811.6 541.2 798 534 783.6 530.4 777.2 528 761.2 528 746.8 528 732.8 526.8 710.4 525.6 696.8 523.2 675.2 521.6 672 512 668 500.4 663.2 480.4 666.4 477.6 673.6 476.8 676 474.4 700.8 472.8 728.8 470 770.4 468 781.2 461.6 788.4 450 801.6 423.2 812 395.2 814.4 373.2 816.4 368.4 815.6 359.2 808.4 339.2 792.4 334.4 746.8 346.4 688.8 354 650.4 369.2 624.4 406.4 586 437.2 554.4 458 540.4 465.2 547.6 468.4 550.8 474.4 601.2 476 635.2 476 638 478 639.2 480 638 482.4 636.4 484 604 484 554.4 484 510 485.2 472 486.8 470.4 488.4 468.8 495.2 468 502 468.8L514 470 515.2 554.8Z",
        "width": 1000
      },
      "search": [
        "respitatoria"
      ]
    },
    {
      "uid": "971e19ca10e339fec9039bd048f36b8d",
      "css": "deportiva",
      "code": 59403,
      "src": "custom_icons",
      "selected": true,
      "svg": {
        "path": "M458.4 36C452.4 38 443.6 42.8 439.6 46.4 423.2 61.2 435.6 106 461.6 126 476.8 137.6 492 159.2 492 169.2 492 173.6 486.4 176.4 474 178.4 459.6 180.4 453.2 184 442 196.8 400.4 246 393.2 312 422.8 371.6L438 402 440 564.8C442.4 744.8 441.6 740 468 740.8 490.8 741.6 492 736 492 644.4 492 599.2 493.2 558 494.4 552.8 501.2 528.4 504 552 504 630.8 504 731.6 505.6 737.2 530 739.2 541.6 740.4 547.2 738.8 550.8 733.6 554.8 728 556 691.6 556 570.4L556 414.4 572.4 380.8C593.2 338.4 599.6 304.8 592.8 273.2 586.8 244 572.4 214.4 553.6 192.4 540.4 177.2 537.2 175.6 525.6 177.2 514.8 179.2 512 178 510 172 506.4 160.4 518.4 139.2 535.6 126.8 555.2 113.2 568 87.6 568 62.8 568 44.8 567.6 44.4 553.2 40 532.8 34 472.8 31.2 458.4 36ZM517.6 200.8C533.6 215.2 555.2 254.8 560 278.4 565.6 304.4 560 338 547.6 353.6 540 363.2 536.8 364 510.8 364 449.2 364 434.4 350.8 437.2 299.6 438.8 263.6 452 232.8 476 207.6 492.8 189.6 503.2 188 517.6 200.8ZM481.2 262C466 268.4 452 289.2 452 305.2 452 361.6 535.2 368.8 546 313.2 552.8 277.2 514.8 247.2 481.2 262ZM254 328C230 337.6 218.4 368.8 229.6 392.8 248 431.6 304.4 426.8 315.6 384.8 326 348 288.4 313.6 254 328ZM705.6 372C679.2 382.4 671.2 422 691.2 444 711.6 467.2 754.4 463.6 768.4 437.2 771.6 431.6 773.6 419.6 773.6 410.8 772.4 379.6 736.8 359.2 705.6 372ZM229.2 432.4C204.8 437.2 186.8 454.8 174 485.6 168.8 497.6 168.4 503.2 172 514.4 177.6 531.2 212 562.4 229.2 566.4L242 569.2 228 574 214 578.8 214 687.6C214 790.8 214.4 796.8 221.6 802.4 233.6 810.8 250.4 809.2 257.6 799.2 262.8 791.6 264 776 264 707.6 264 662 265.2 622 266.4 618.4 273.2 600.8 275.6 620 276.8 703.2 278 804 279.2 808 302 808 327.6 808 328 805.6 328 684.8 328 611.6 326.8 576 324 576 321.6 576 314.4 578.8 308.4 582 298.8 586.8 296 586.8 289.6 582 280 575.2 281.6 573.6 318.8 557.6 368.8 536 382.4 512.8 365.6 477.6 357.2 460 326.4 432 315.2 431.6 276.8 430 238.8 430.4 229.2 432.4ZM304 472C304 474 301.2 474.8 298 473.6 290.8 470.8 290 481.2 296.4 499.6 302.4 516.4 308 515.2 308.8 496.8L309.2 482 310.8 495.6C313.6 517.2 305.6 530.8 286.4 537.2 269.6 542.8 269.6 542.8 254.8 529.6 243.2 518.8 237.6 516.4 230 518.4 221.2 520.4 220 519.6 220 510.8 220 498.4 250 477.6 278.8 470 298.4 465.2 304 465.6 304 472ZM665.2 482.4C642 498 628 520.8 628 545.2 628 564 629.2 566 651.6 587.6 671.6 606.8 674.4 611.6 671.2 617.6 668.4 622.4 667.6 661.2 668.8 728.8 670.4 824.4 671.2 833.2 678.4 840 690.8 852 702.4 853.6 711.6 844.4 719.6 836.4 720 831.2 720 756.4 720 676 722 650.4 728.4 654.4 730.4 655.6 732 695.6 732 743.6 732 822.8 732.8 832 739.2 840.4 748.8 851.6 770.8 852.8 778.4 842 782.8 836 784 810.4 784 722.8L784 611.2 775.2 613.6C754.4 619.6 740.8 620.8 738.4 616.4 736.4 613.6 740 612 748.4 612 775.6 612 820 578.8 826.4 553.6 832.4 529.6 812 494.4 783.6 480 771.2 473.6 760 472 724.8 472 684.8 472 680.4 472.8 665.2 482.4ZM390.8 754.8C389.2 756 388 794.8 388 840.8 388 895.6 386.8 923.6 384 922 381.6 920.4 380 898 380 867.6L380 816 278.4 816 176.8 816 175.2 864C174.4 894 172.4 913.2 169.2 916.4 166.4 919.2 157.6 922.4 149.2 923.6 134.4 926 134 926.4 132.8 945.2L131.6 964 500 964 868.4 964 867.2 949.2C866 933.6 858 926.8 835.2 922 824 920 824 919.2 824 890L824 860 722 860 620 860 620 882.8C620 909.6 616.4 924.8 611.6 921.6 609.6 920.4 608 882 608 835.6L608 752 500.8 752C441.6 752 392 753.2 390.8 754.8Z",
        "width": 1000
      },
      "search": [
        "deportiva"
      ]
    },
    {
      "uid": "e05710ef69daa5274639bf828ab4e0d8",
      "css": "infantil",
      "code": 59404,
      "src": "custom_icons",
      "selected": true,
      "svg": {
        "path": "M464 31.6C394 54.4 353.2 123.2 370 188.8 377.6 219.2 386.8 234 410.4 256 438 281.6 460 290 498 290 539.2 289.6 564 279.2 592 249.6 625.6 214.4 637.2 174 626 130.8 610.8 70.8 564 32 504 29.6 487.6 28.8 469.6 29.6 464 31.6ZM201.2 192C179.2 205.2 169.6 236 180.8 257.2 183.2 262 222 303.6 266.8 349.6 311.6 395.2 350.4 437.6 352.8 443.6 356 450.8 357.2 525.6 356.4 686L355.6 918 364.8 936C388.8 982.8 447.6 984.8 473.6 940 481.6 926.8 482 918.4 483.2 809.2 484.4 703.2 485.2 692 491.6 686.4 498.4 680.4 499.2 680.4 504.4 686.4 508.8 691.6 510.4 718 512 807.6 513.6 909.2 514.8 923.6 521.6 937.2 543.2 981.2 599.2 984 629.6 942.8 638 931.6 638 927.2 640 690.8 642 467.6 642.4 449.2 649.2 436.8 653.2 429.2 689.6 390.4 730 350.8 770.4 310.8 807.2 271.6 811.6 264 833.2 228 808.4 184 766.8 184 745.2 184 739.6 188 688 237.6 620 303.2 573.6 324.4 498 324.8 424 324.8 373.2 301.2 304 234 283.2 214 261.6 194.4 256 190.8 242.8 181.6 216.8 182.4 201.2 192Z",
        "width": 1000
      },
      "search": [
        "infantil"
      ]
    },
    {
      "uid": "4fb9abf13966864f684138e17eabfcef",
      "css": "vitaminas",
      "code": 59405,
      "src": "custom_icons",
      "selected": true,
      "svg": {
        "path": "M388 54.4C362.8 63.6 337.6 82 323.6 101.2 300.8 132.8 299.6 143.6 300.8 312.8 302 459.6 302.4 466.8 310.4 484.4 322.8 511.2 345.2 534 372.8 548 434.4 578.4 510.8 552.4 542.8 490 556.8 463.2 558.8 424.4 556 266L554 138 543.2 117.6C530.4 93.2 505.6 70 480.4 58.8 455.6 48 412 45.6 388 54.4ZM439.2 98.4C446.8 100.8 444.8 102.4 425.2 112 376 135.2 368 154.4 368 246.4L368 312 443.2 312.8 518 314 519.2 364C521.6 476.8 498.4 516 428 516 382.8 516 354.8 496 343.6 456 340 443.2 338.8 399.2 338.8 304 338.8 163.2 340.4 146 357.2 122.4 371.6 102 410 90.8 439.2 98.4ZM698 126.8C660.8 140.4 617.2 174.4 603.6 200.8 596 215.2 592.8 252 599.2 252 600.8 252 619.2 237.6 640 219.6 704.4 164.4 735.6 152.8 766.8 172 778.4 178.8 794.8 202.4 791.2 206.4 790.4 207.2 780.8 205.2 770 202 728 189.2 704 196 667.2 230.8 633.6 263.2 590 316 594.4 319.6 596.4 321.6 619.6 338 646 356 672.4 374.4 698 392.4 702.8 396 711.2 402.4 710 404 625.6 478 552.8 542.4 540.8 554.4 544.8 559.6 547.6 563.2 550 566.4 550 566.8 551.2 570 615.6 542.4 629.2 533.2 638.4 527.2 690 478 744.4 424 854.8 314.4 860.8 305.6 863.2 258 866 204.8 838.8 160 790.4 136 758 120 726 116.8 698 126.8ZM817.6 592C806.4 593.6 793.6 596.8 789.2 599.2 780.8 604 745.2 642.8 695.2 702 662 742 642 754.8 596 766.4 564.4 774.4 508 772.8 489.6 762.8 476.4 756 453.6 729.2 457.6 724.8 459.2 723.6 490.4 721.2 527.2 719.6 604.4 716.4 620.8 711.6 642 687.2 649.6 678.4 658.4 663.2 661.6 653.6L667.6 636 482.4 636 297.2 636 283.2 646.8C260.4 665.2 132 785.6 132.8 788 133.6 789.2 171.2 826.8 216.8 871.6L299.6 952.8 332.8 927.2C401.2 874.4 398.4 875.2 540 872 680.4 869.2 674 871.2 723.6 814.4 779.2 750.8 848.4 663.2 854.8 648.8 858.8 639.2 859.6 628.4 857.6 611.6 854.8 585.2 856.8 586.4 817.6 592Z",
        "width": 1000
      },
      "search": [
        "vitaminas"
      ]
    },
    {
      "uid": "a55a2a04c2497fa02e92314a0828f831",
      "css": "alive",
      "code": 59406,
      "src": "custom_icons",
      "selected": true,
      "svg": {
        "path": "M372.4 199.7C299.7 272.7 241.7 331.4 237.9 336 204.8 377 183.8 419.4 171.7 469.5 166.2 492.2 163.8 509.3 162.6 533.5 159.6 592.9 173.1 654.4 200.4 706.4 234.8 771.9 294.3 827.7 360.8 857 468 904.2 588.5 895.8 683.2 834.4 720.6 810.2 756.3 775.1 780.8 738.3 804.9 702.3 821.9 661.8 830.8 618.8 838.5 581.5 839.9 538.6 834.5 500.8 825.4 436.9 798.9 378.4 756.4 328.4 749.8 320.6 502 71.7 500.8 71.7 500.6 71.7 442.8 129.3 372.4 199.8ZM679.8 404.8C707.7 439.8 724.3 479.3 730.1 523.8 730.8 528.5 731.2 539.9 731.2 550.4 731.1 571.8 729.4 585 724.2 605.3 704.3 683.7 643.8 747.2 567.3 770.3 545.3 777 524.6 780 500.4 780 462.8 780 429.5 771.8 395.4 754.3 372.7 742.6 356.1 730.4 337.4 711.8 306.7 681 287.5 647.7 277 606.8 258.8 535.7 275 461.3 321.3 404.4 325.7 399 363 361 414.5 309.3L500.4 223.3 586.8 309.8C642 365.2 675.5 399.3 679.8 404.8ZM417.5 352.8C417.5 353 424.4 367.6 432.8 385.2L448.3 417.1 483.9 417.6C523.2 418.1 524.4 418.3 534.5 423.6 542 427.6 550.8 436.5 554.5 444.2 558.8 453 560 459.7 560 475.2L560 488.3 511.2 488.3C457.1 488.3 451.7 488.8 436.7 493.5 421.3 498.4 409.8 505.3 398.2 516.5 384.2 530 375.6 545.7 370.7 566.7 368.6 575.9 367.7 602.2 369.1 613.8 374.3 654.4 399.8 685.5 437.5 697 454 702 451.3 701.9 541.9 702.3L625.1 702.6 624.8 576.5C624.6 458.5 624.4 449.9 623 442.5 619.8 425.8 614.5 412.4 606.2 399.8 590.3 376 566.1 360.6 535.7 354.9 526.9 353.3 522.6 353.2 471.9 352.8 442 352.5 417.5 352.5 417.5 352.8ZM560 595L560 637.5 515.7 637.5C480.6 637.5 470.1 637.3 465.7 636.3 448.4 632.7 435.8 618.9 433.3 601.4 430 577.7 445.3 556.8 468.3 553.4 470.8 553 492.5 552.7 516.5 552.6L560 552.5 560 595Z",
        "width": 1000
      },
      "search": [
        "alive"
      ]
    }
  ]
}